--------------------------Normal videos no dataset--------------------------------
normal1.mp4
normal2.mp4
normal3.mp4
normal5.mp4
--------------------------Cut videos no dataset--------------------------------
cut1.mp4
cut2.mp4
cut3.mp4
cut4.mp4
cut5.mp4